{
    "provincias": [
        {
            "nombre_completo": "Provincia de Misiones",
            "fuente": "IGN",
            "iso_id": "AR-N",
            "nombre": "Misiones",
            "id": "54",
            "categoria": "Provincia",
            "iso_nombre": "Misiones",
            "centroide": {
                "lat": -26.875397,
                "lon": -54.651695
            }
        },
        {
            "nombre_completo": "Provincia de San Luis",
            "fuente": "IGN",
            "iso_id": "AR-D",
            "nombre": "San Luis",
            "id": "74",
            "categoria": "Provincia",
            "iso_nombre": "San Luis",
            "centroide": {
                "lat": -33.757725,
                "lon": -66.02813
            }
        },
        {
            "nombre_completo": "Provincia de San Juan",
            "fuente": "IGN",
            "iso_id": "AR-J",
            "nombre": "San Juan",
            "id": "70",
            "categoria": "Provincia",
            "iso_nombre": "San Juan",
            "centroide": {
                "lat": -30.865368,
                "lon": -68.88949
            }
        },
        {
            "nombre_completo": "Provincia de Entre Ríos",
            "fuente": "IGN",
            "iso_id": "AR-E",
            "nombre": "Entre Ríos",
            "id": "30",
            "categoria": "Provincia",
            "iso_nombre": "Entre Ríos",
            "centroide": {
                "lat": -32.058872,
                "lon": -59.201447
            }
        },
        {
            "nombre_completo": "Provincia de Santa Cruz",
            "fuente": "IGN",
            "iso_id": "AR-Z",
            "nombre": "Santa Cruz",
            "id": "78",
            "categoria": "Provincia",
            "iso_nombre": "Santa Cruz",
            "centroide": {
                "lat": -48.815487,
                "lon": -69.955765
            }
        },
        {
            "nombre_completo": "Provincia de Río Negro",
            "fuente": "IGN",
            "iso_id": "AR-R",
            "nombre": "Río Negro",
            "id": "62",
            "categoria": "Provincia",
            "iso_nombre": "Río Negro",
            "centroide": {
                "lat": -40.405796,
                "lon": -67.22933
            }
        },
        {
            "nombre_completo": "Provincia del Chubut",
            "fuente": "IGN",
            "iso_id": "AR-U",
            "nombre": "Chubut",
            "id": "26",
            "categoria": "Provincia",
            "iso_nombre": "Chubut",
            "centroide": {
                "lat": -43.788624,
                "lon": -68.52676
            }
        },
        {
            "nombre_completo": "Provincia de Córdoba",
            "fuente": "IGN",
            "iso_id": "AR-X",
            "nombre": "Córdoba",
            "id": "14",
            "categoria": "Provincia",
            "iso_nombre": "Córdoba",
            "centroide": {
                "lat": -32.142933,
                "lon": -63.801754
            }
        },
        {
            "nombre_completo": "Provincia de Mendoza",
            "fuente": "IGN",
            "iso_id": "AR-M",
            "nombre": "Mendoza",
            "id": "50",
            "categoria": "Provincia",
            "iso_nombre": "Mendoza",
            "centroide": {
                "lat": -34.629887,
                "lon": -68.58312
            }
        },
        {
            "nombre_completo": "Provincia de La Rioja",
            "fuente": "IGN",
            "iso_id": "AR-F",
            "nombre": "La Rioja",
            "id": "46",
            "categoria": "Provincia",
            "iso_nombre": "La Rioja",
            "centroide": {
                "lat": -29.685776,
                "lon": -67.18173
            }
        },
        {
            "nombre_completo": "Provincia de Catamarca",
            "fuente": "IGN",
            "iso_id": "AR-K",
            "nombre": "Catamarca",
            "id": "10",
            "categoria": "Provincia",
            "iso_nombre": "Catamarca",
            "centroide": {
                "lat": -27.335833,
                "lon": -66.947685
            }
        },
        {
            "nombre_completo": "Provincia de La Pampa",
            "fuente": "IGN",
            "iso_id": "AR-L",
            "nombre": "La Pampa",
            "id": "42",
            "categoria": "Provincia",
            "iso_nombre": "La Pampa",
            "centroide": {
                "lat": -37.131554,
                "lon": -65.446655
            }
        },
        {
            "nombre_completo": "Provincia de Santiago del Estero",
            "fuente": "IGN",
            "iso_id": "AR-G",
            "nombre": "Santiago del Estero",
            "id": "86",
            "categoria": "Provincia",
            "iso_nombre": "Santiago del Estero",
            "centroide": {
                "lat": -27.782412,
                "lon": -63.252388
            }
        },
        {
            "nombre_completo": "Provincia de Corrientes",
            "fuente": "IGN",
            "iso_id": "AR-W",
            "nombre": "Corrientes",
            "id": "18",
            "categoria": "Provincia",
            "iso_nombre": "Corrientes",
            "centroide": {
                "lat": -28.774305,
                "lon": -57.80122
            }
        },
        {
            "nombre_completo": "Provincia de Santa Fe",
            "fuente": "IGN",
            "iso_id": "AR-S",
            "nombre": "Santa Fe",
            "id": "82",
            "categoria": "Provincia",
            "iso_nombre": "Santa Fe",
            "centroide": {
                "lat": -30.706926,
                "lon": -60.949837
            }
        },
        {
            "nombre_completo": "Provincia de Tucumán",
            "fuente": "IGN",
            "iso_id": "AR-T",
            "nombre": "Tucumán",
            "id": "90",
            "categoria": "Provincia",
            "iso_nombre": "Tucumán",
            "centroide": {
                "lat": -26.9478,
                "lon": -65.36476
            }
        },
        {
            "nombre_completo": "Provincia del Neuquén",
            "fuente": "IGN",
            "iso_id": "AR-Q",
            "nombre": "Neuquén",
            "id": "58",
            "categoria": "Provincia",
            "iso_nombre": "Neuquén",
            "centroide": {
                "lat": -38.641758,
                "lon": -70.11857
            }
        },
        {
            "nombre_completo": "Provincia de Salta",
            "fuente": "IGN",
            "iso_id": "AR-A",
            "nombre": "Salta",
            "id": "66",
            "categoria": "Provincia",
            "iso_nombre": "Salta",
            "centroide": {
                "lat": -24.299135,
                "lon": -64.81446
            }
        },
        {
            "nombre_completo": "Provincia del Chaco",
            "fuente": "IGN",
            "iso_id": "AR-H",
            "nombre": "Chaco",
            "id": "22",
            "categoria": "Provincia",
            "iso_nombre": "Chaco",
            "centroide": {
                "lat": -26.38643,
                "lon": -60.76583
            }
        },
        {
            "nombre_completo": "Provincia de Formosa",
            "fuente": "IGN",
            "iso_id": "AR-P",
            "nombre": "Formosa",
            "id": "34",
            "categoria": "Provincia",
            "iso_nombre": "Formosa",
            "centroide": {
                "lat": -24.894972,
                "lon": -59.93244
            }
        },
        {
            "nombre_completo": "Provincia de Jujuy",
            "fuente": "IGN",
            "iso_id": "AR-Y",
            "nombre": "Jujuy",
            "id": "38",
            "categoria": "Provincia",
            "iso_nombre": "Jujuy",
            "centroide": {
                "lat": -23.320078,
                "lon": -65.76425
            }
        },
        {
            "nombre_completo": "Ciudad Autónoma de Buenos Aires",
            "fuente": "IGN",
            "iso_id": "AR-C",
            "nombre": "Ciudad Autónoma de Buenos Aires",
            "id": "02",
            "categoria": "Ciudad Autónoma",
            "iso_nombre": "Ciudad Autónoma de Buenos Aires",
            "centroide": {
                "lat": -34.614494,
                "lon": -58.445858
            }
        },
        {
            "nombre_completo": "Provincia de Buenos Aires",
            "fuente": "IGN",
            "iso_id": "AR-B",
            "nombre": "Buenos Aires",
            "id": "06",
            "categoria": "Provincia",
            "iso_nombre": "Buenos Aires",
            "centroide": {
                "lat": -36.67694,
                "lon": -60.55883
            }
        },
        {
            "nombre_completo": "Provincia de Tierra del Fuego, Antártida e Islas del Atlántico Sur",
            "fuente": "IGN",
            "iso_id": "AR-V",
            "nombre": "Tierra del Fuego, Antártida e Islas del Atlántico Sur",
            "id": "94",
            "categoria": "Provincia",
            "iso_nombre": "Tierra del Fuego",
            "centroide": {
                "lat": -82.521515,
                "lon": -50.74275
            }
        }
    ],
    "total": 24,
    "cantidad": 24,
    "parametros": {},
    "inicio": 0
}